{
  "project_info": {
    "project_number": "281114298484",
    "firebase_url": "https://wefi-1a410.firebaseio.com",
    "project_id": "wefi-1a410",
    "storage_bucket": "wefi-1a410.appspot.com"
  },
  "client": [
    {
      "client_info": {
        "mobilesdk_app_id": "1:281114298484:android:edf63458704bbb8af92921",
        "android_client_info": {
          "package_name": "com.begoml.wefi"
        }
      },
      "oauth_client": [
        {
          "client_id": "281114298484-dv0b5sje6ednol8k1t3hq5o31ogq45qr.apps.googleusercontent.com",
          "client_type": 3
        }
      ],
      "api_key": [
        {
          "current_key": "AIzaSyDfQ4CqbCiTN6IZNIwmF9hU8gHMJ8-yDyw"
        }
      ],
      "services": {
        "appinvite_service": {
          "other_platform_oauth_client": [
            {
              "client_id": "281114298484-dv0b5sje6ednol8k1t3hq5o31ogq45qr.apps.googleusercontent.com",
              "client_type": 3
            }
          ]
        }
      }
    }
  ],
  "configuration_version": "1"
}